{
    "componentChunkName": "component---packages-blog-gatsby-blog-core-src-templates-collection-tag-js",
    "path": "/tag/business/",
    "result": {"data":{"collectionInfo":{"id":"6f077534-6d28-59eb-986d-893bd0aafcdb","name":"#business","slug":"/tag/business/"},"posts":{"nodes":[{"id":"54e482f2-c7d1-529b-983c-7e4281a1500b","title":"Astronomers Detect Most Energetic Outflow From A Distant Quasar","slug":"/astronomers-detect-most-energetic-outflow-from-a-distant-quasar/","link":null,"excerpt":"Nec ego a vidit Lorem  markdownum Ilion. Naides ferox vocantem, Iuno artes patrios tamen,\nspicea…","timeToRead":1,"featured":true,"thumbnailText":null,"date":"May 15, 2021","category":{"id":"b59569fe-82dc-5214-8e03-49d57fc0990b","name":"Physics & Mathematics","slug":"/category/physics-and-mathematics/","color":"#fefcbf","icon":"/static/35c6c4f7d744541f08be2bbd2770c8db/physics-mathematics.svg"},"author":{"id":"9851d150-0e3e-5c1f-8e83-9040e3b107c2","name":"Jane Smith","slug":"/author/jane-smith/","title":"Biochemist","description":"Sed commodo, est quis maximus fermentum, massa ipsum euismod neque, in varius risus tellus quis lacus. Sed ac bibendum odio.","skills":["DNA","Laboratory Instruments","Molecular "],"social":[{"name":"Instagram","url":"https://instagram.com/instagram"},{"name":"Twitter","url":"https://twitter.com/twitter"},{"name":"Website","url":"https://example.com"}],"thumbnail":{"__typename":"ImageSharp","ImageSharp_small":{"layout":"fixed","placeholder":{"fallback":"data:image/svg+xml,%3csvg%20xmlns='http://www.w3.org/2000/svg'%20width='48'%20height='48'%20viewBox='0%200%2048%2048'%20preserveAspectRatio='none'%3e%3cpath%20d='M15%203c-3%203-5%209-4%2013%201%201%200%203-1%205-3%204-2%2010%201%2010l3%201%202%201%202%201h6v-3c1-3-2-10-4-12-3-3-3-6-1-6l3-1c1-4%208-8%2010-7%205%203%205%2014%201%2018-2%201-4%207-2%205l1%201v2h1l2%203c1%202%202%203%204%201s2-4%200-8c-1-3-1-3%201-6%203-4%202-7-2-17l-2-4h-9C17%200%2017%200%2015%203'%20fill='%23d3d3d3'%20fill-rule='evenodd'/%3e%3c/svg%3e"},"images":{"fallback":{"src":"/static/ec552a7c1f96030de0601b3b204b16cf/a7a66/jane-smith.png","srcSet":"/static/ec552a7c1f96030de0601b3b204b16cf/a7a66/jane-smith.png 48w,\n/static/ec552a7c1f96030de0601b3b204b16cf/416a0/jane-smith.png 96w","sizes":"48px"},"sources":[{"srcSet":"/static/ec552a7c1f96030de0601b3b204b16cf/a3542/jane-smith.webp 48w,\n/static/ec552a7c1f96030de0601b3b204b16cf/0f66d/jane-smith.webp 96w","type":"image/webp","sizes":"48px"}]},"width":48,"height":48},"ImageSharp_regular":{"layout":"fixed","placeholder":{"fallback":"data:image/svg+xml,%3csvg%20xmlns='http://www.w3.org/2000/svg'%20width='48'%20height='48'%20viewBox='0%200%2048%2048'%20preserveAspectRatio='none'%3e%3cpath%20d='M15%203c-3%203-5%209-4%2013%201%201%200%203-1%205-3%204-2%2010%201%2010l3%201%202%201%202%201h6v-3c1-3-2-10-4-12-3-3-3-6-1-6l3-1c1-4%208-8%2010-7%205%203%205%2014%201%2018-2%201-4%207-2%205l1%201v2h1l2%203c1%202%202%203%204%201s2-4%200-8c-1-3-1-3%201-6%203-4%202-7-2-17l-2-4h-9C17%200%2017%200%2015%203'%20fill='%23d3d3d3'%20fill-rule='evenodd'/%3e%3c/svg%3e"},"images":{"fallback":{"src":"/static/ec552a7c1f96030de0601b3b204b16cf/46e60/jane-smith.png","srcSet":"/static/ec552a7c1f96030de0601b3b204b16cf/46e60/jane-smith.png 150w,\n/static/ec552a7c1f96030de0601b3b204b16cf/d612b/jane-smith.png 300w","sizes":"150px"},"sources":[{"srcSet":"/static/ec552a7c1f96030de0601b3b204b16cf/ae23d/jane-smith.webp 150w,\n/static/ec552a7c1f96030de0601b3b204b16cf/bd37b/jane-smith.webp 300w","type":"image/webp","sizes":"150px"}]},"width":150,"height":150}}},"thumbnail":{"__typename":"ImageSharp","ImageSharp_vertical":{"layout":"constrained","backgroundColor":"#787898","images":{"fallback":{"src":"/static/a381cbe123484c239b97a005d5ce4a00/144fe/image.jpg","srcSet":"/static/a381cbe123484c239b97a005d5ce4a00/9d7b9/image.jpg 190w,\n/static/a381cbe123484c239b97a005d5ce4a00/144fe/image.jpg 380w","sizes":"(min-width: 380px) 380px, 100vw"},"sources":[{"srcSet":"/static/a381cbe123484c239b97a005d5ce4a00/228d6/image.webp 190w,\n/static/a381cbe123484c239b97a005d5ce4a00/6b99c/image.webp 380w","type":"image/webp","sizes":"(min-width: 380px) 380px, 100vw"}]},"width":380,"height":290},"ImageSharp_hero":{"layout":"constrained","backgroundColor":"#787898","images":{"fallback":{"src":"/static/a381cbe123484c239b97a005d5ce4a00/5e493/image.jpg","srcSet":"/static/a381cbe123484c239b97a005d5ce4a00/696c0/image.jpg 800w,\n/static/a381cbe123484c239b97a005d5ce4a00/5e493/image.jpg 1600w","sizes":"(min-width: 1600px) 1600px, 100vw"},"sources":[{"srcSet":"/static/a381cbe123484c239b97a005d5ce4a00/c9f06/image.webp 800w,\n/static/a381cbe123484c239b97a005d5ce4a00/f47df/image.webp 1600w","type":"image/webp","sizes":"(min-width: 1600px) 1600px, 100vw"}]},"width":1600,"height":650}}},{"id":"6c41697c-4fc8-524e-9f2e-a7e13f04305d","title":"Using Satellites And AI To Help Fight Poverty In Africa","slug":"/using-satellites-and-ai-to-help-fight-poverty-in-africa/","link":null,"excerpt":"Primo in altis pelle alumnae Lorem markdownum obvius in seque opus, est bicorni forte; laeva…","timeToRead":1,"featured":true,"thumbnailText":null,"date":"June 02, 2020","category":{"id":"0b5ac4a8-ae62-515b-af2d-6c97757a2cee","name":"Technology","slug":"/category/technology/","color":"#bee3f8","icon":"/static/f41361d1715191a688f7243a90b28bc7/technology.svg"},"author":{"id":"20a83d85-4b9e-506d-9bff-345a4bbe1a5c","name":"John Doe","slug":"/author/john-doe/","title":"Anthropologist","description":"Sed commodo, est quis maximus fermentum, massa ipsum euismod neque, in varius risus tellus quis lacus. Sed ac bibendum odio.","skills":["Early Hominids","Biology","Anthropology"],"social":[{"name":"Github","url":"https://github.com/johndoe"},{"name":"Twitter","url":"https://twitter.com/twitter"},{"name":"Website","url":"https://example.com"}],"thumbnail":{"__typename":"ImageSharp","ImageSharp_small":{"layout":"fixed","placeholder":{"fallback":"data:image/svg+xml,%3csvg%20xmlns='http://www.w3.org/2000/svg'%20width='48'%20height='48'%20viewBox='0%200%2048%2048'%20preserveAspectRatio='none'%3e%3cpath%20d='M22%203c-2%201-3%204-4%207l-2%205c-2%202-2%202-2-1l-2-3c-1%200-1%202%202%208%200%202%202%203%204%204%202%200%203%202%203%203h1c1-1%201-2-2-4l-4-5h1l2%201v-2c-2-1-2-1%200-1l2-2c0-6%204-9%2011-9%204%200%204%200%205%204v16c-1%201-1%201%200%200%202-3%203-11%201-19l-1-5h-6c-5%200-7%200-9%203m4%2023l3%202%203%201-2%203-2%203-4-4-5-4v21h18l-1-5c0-6%201-5%203%201l1%204v-5l-1-9c0-3-1-4-2-5-2-1-2-1-2%201%202%203%202%205%201%207-1%201-1-1-1-9%200-1-1-2-3-1l-4-1h-2'%20fill='%23d3d3d3'%20fill-rule='evenodd'/%3e%3c/svg%3e"},"images":{"fallback":{"src":"/static/011b3215b6b7e782f02d67aebfa4c319/a7a66/john-doe.png","srcSet":"/static/011b3215b6b7e782f02d67aebfa4c319/a7a66/john-doe.png 48w,\n/static/011b3215b6b7e782f02d67aebfa4c319/416a0/john-doe.png 96w","sizes":"48px"},"sources":[{"srcSet":"/static/011b3215b6b7e782f02d67aebfa4c319/a3542/john-doe.webp 48w,\n/static/011b3215b6b7e782f02d67aebfa4c319/0f66d/john-doe.webp 96w","type":"image/webp","sizes":"48px"}]},"width":48,"height":48},"ImageSharp_regular":{"layout":"fixed","placeholder":{"fallback":"data:image/svg+xml,%3csvg%20xmlns='http://www.w3.org/2000/svg'%20width='48'%20height='48'%20viewBox='0%200%2048%2048'%20preserveAspectRatio='none'%3e%3cpath%20d='M22%203c-2%201-3%204-4%207l-2%205c-2%202-2%202-2-1l-2-3c-1%200-1%202%202%208%200%202%202%203%204%204%202%200%203%202%203%203h1c1-1%201-2-2-4l-4-5h1l2%201v-2c-2-1-2-1%200-1l2-2c0-6%204-9%2011-9%204%200%204%200%205%204v16c-1%201-1%201%200%200%202-3%203-11%201-19l-1-5h-6c-5%200-7%200-9%203m4%2023l3%202%203%201-2%203-2%203-4-4-5-4v21h18l-1-5c0-6%201-5%203%201l1%204v-5l-1-9c0-3-1-4-2-5-2-1-2-1-2%201%202%203%202%205%201%207-1%201-1-1-1-9%200-1-1-2-3-1l-4-1h-2'%20fill='%23d3d3d3'%20fill-rule='evenodd'/%3e%3c/svg%3e"},"images":{"fallback":{"src":"/static/011b3215b6b7e782f02d67aebfa4c319/46e60/john-doe.png","srcSet":"/static/011b3215b6b7e782f02d67aebfa4c319/46e60/john-doe.png 150w,\n/static/011b3215b6b7e782f02d67aebfa4c319/d612b/john-doe.png 300w","sizes":"150px"},"sources":[{"srcSet":"/static/011b3215b6b7e782f02d67aebfa4c319/ae23d/john-doe.webp 150w,\n/static/011b3215b6b7e782f02d67aebfa4c319/bd37b/john-doe.webp 300w","type":"image/webp","sizes":"150px"}]},"width":150,"height":150}}},"thumbnail":{"__typename":"ImageSharp","ImageSharp_vertical":{"layout":"constrained","backgroundColor":"#787898","images":{"fallback":{"src":"/static/a381cbe123484c239b97a005d5ce4a00/144fe/image.jpg","srcSet":"/static/a381cbe123484c239b97a005d5ce4a00/9d7b9/image.jpg 190w,\n/static/a381cbe123484c239b97a005d5ce4a00/144fe/image.jpg 380w","sizes":"(min-width: 380px) 380px, 100vw"},"sources":[{"srcSet":"/static/a381cbe123484c239b97a005d5ce4a00/228d6/image.webp 190w,\n/static/a381cbe123484c239b97a005d5ce4a00/6b99c/image.webp 380w","type":"image/webp","sizes":"(min-width: 380px) 380px, 100vw"}]},"width":380,"height":290},"ImageSharp_hero":{"layout":"constrained","backgroundColor":"#787898","images":{"fallback":{"src":"/static/a381cbe123484c239b97a005d5ce4a00/5e493/image.jpg","srcSet":"/static/a381cbe123484c239b97a005d5ce4a00/696c0/image.jpg 800w,\n/static/a381cbe123484c239b97a005d5ce4a00/5e493/image.jpg 1600w","sizes":"(min-width: 1600px) 1600px, 100vw"},"sources":[{"srcSet":"/static/a381cbe123484c239b97a005d5ce4a00/c9f06/image.webp 800w,\n/static/a381cbe123484c239b97a005d5ce4a00/f47df/image.webp 1600w","type":"image/webp","sizes":"(min-width: 1600px) 1600px, 100vw"}]},"width":1600,"height":650}}},{"id":"4d6232f8-e6b7-5e35-b79a-fae1b80e3070","title":"Mercury’s 400 C Heat May Help It Make Its Own Ice","slug":"/mercurys-400-c-heat-may-help-it-make-its-own-ice/","link":null,"excerpt":"Lorem markdownum transitque nondum, Peliaeque at poterat exegit, urbis quo;\ntibi. Cursus mecum adit…","timeToRead":1,"featured":null,"thumbnailText":null,"date":"May 16, 2020","category":{"id":"f3bd7f3a-1381-5200-8389-cc1370c94675","name":"Space","slug":"/category/space/","color":"#e9d8fd","icon":"/static/1de85bbd781531b61bf5a25b83d72d32/space.svg"},"author":{"id":"20a83d85-4b9e-506d-9bff-345a4bbe1a5c","name":"John Doe","slug":"/author/john-doe/","title":"Anthropologist","description":"Sed commodo, est quis maximus fermentum, massa ipsum euismod neque, in varius risus tellus quis lacus. Sed ac bibendum odio.","skills":["Early Hominids","Biology","Anthropology"],"social":[{"name":"Github","url":"https://github.com/johndoe"},{"name":"Twitter","url":"https://twitter.com/twitter"},{"name":"Website","url":"https://example.com"}],"thumbnail":{"__typename":"ImageSharp","ImageSharp_small":{"layout":"fixed","placeholder":{"fallback":"data:image/svg+xml,%3csvg%20xmlns='http://www.w3.org/2000/svg'%20width='48'%20height='48'%20viewBox='0%200%2048%2048'%20preserveAspectRatio='none'%3e%3cpath%20d='M22%203c-2%201-3%204-4%207l-2%205c-2%202-2%202-2-1l-2-3c-1%200-1%202%202%208%200%202%202%203%204%204%202%200%203%202%203%203h1c1-1%201-2-2-4l-4-5h1l2%201v-2c-2-1-2-1%200-1l2-2c0-6%204-9%2011-9%204%200%204%200%205%204v16c-1%201-1%201%200%200%202-3%203-11%201-19l-1-5h-6c-5%200-7%200-9%203m4%2023l3%202%203%201-2%203-2%203-4-4-5-4v21h18l-1-5c0-6%201-5%203%201l1%204v-5l-1-9c0-3-1-4-2-5-2-1-2-1-2%201%202%203%202%205%201%207-1%201-1-1-1-9%200-1-1-2-3-1l-4-1h-2'%20fill='%23d3d3d3'%20fill-rule='evenodd'/%3e%3c/svg%3e"},"images":{"fallback":{"src":"/static/011b3215b6b7e782f02d67aebfa4c319/a7a66/john-doe.png","srcSet":"/static/011b3215b6b7e782f02d67aebfa4c319/a7a66/john-doe.png 48w,\n/static/011b3215b6b7e782f02d67aebfa4c319/416a0/john-doe.png 96w","sizes":"48px"},"sources":[{"srcSet":"/static/011b3215b6b7e782f02d67aebfa4c319/a3542/john-doe.webp 48w,\n/static/011b3215b6b7e782f02d67aebfa4c319/0f66d/john-doe.webp 96w","type":"image/webp","sizes":"48px"}]},"width":48,"height":48},"ImageSharp_regular":{"layout":"fixed","placeholder":{"fallback":"data:image/svg+xml,%3csvg%20xmlns='http://www.w3.org/2000/svg'%20width='48'%20height='48'%20viewBox='0%200%2048%2048'%20preserveAspectRatio='none'%3e%3cpath%20d='M22%203c-2%201-3%204-4%207l-2%205c-2%202-2%202-2-1l-2-3c-1%200-1%202%202%208%200%202%202%203%204%204%202%200%203%202%203%203h1c1-1%201-2-2-4l-4-5h1l2%201v-2c-2-1-2-1%200-1l2-2c0-6%204-9%2011-9%204%200%204%200%205%204v16c-1%201-1%201%200%200%202-3%203-11%201-19l-1-5h-6c-5%200-7%200-9%203m4%2023l3%202%203%201-2%203-2%203-4-4-5-4v21h18l-1-5c0-6%201-5%203%201l1%204v-5l-1-9c0-3-1-4-2-5-2-1-2-1-2%201%202%203%202%205%201%207-1%201-1-1-1-9%200-1-1-2-3-1l-4-1h-2'%20fill='%23d3d3d3'%20fill-rule='evenodd'/%3e%3c/svg%3e"},"images":{"fallback":{"src":"/static/011b3215b6b7e782f02d67aebfa4c319/46e60/john-doe.png","srcSet":"/static/011b3215b6b7e782f02d67aebfa4c319/46e60/john-doe.png 150w,\n/static/011b3215b6b7e782f02d67aebfa4c319/d612b/john-doe.png 300w","sizes":"150px"},"sources":[{"srcSet":"/static/011b3215b6b7e782f02d67aebfa4c319/ae23d/john-doe.webp 150w,\n/static/011b3215b6b7e782f02d67aebfa4c319/bd37b/john-doe.webp 300w","type":"image/webp","sizes":"150px"}]},"width":150,"height":150}}},"thumbnail":{"__typename":"ImageSharp","ImageSharp_vertical":{"layout":"constrained","backgroundColor":"#787898","images":{"fallback":{"src":"/static/a381cbe123484c239b97a005d5ce4a00/144fe/image.jpg","srcSet":"/static/a381cbe123484c239b97a005d5ce4a00/9d7b9/image.jpg 190w,\n/static/a381cbe123484c239b97a005d5ce4a00/144fe/image.jpg 380w","sizes":"(min-width: 380px) 380px, 100vw"},"sources":[{"srcSet":"/static/a381cbe123484c239b97a005d5ce4a00/228d6/image.webp 190w,\n/static/a381cbe123484c239b97a005d5ce4a00/6b99c/image.webp 380w","type":"image/webp","sizes":"(min-width: 380px) 380px, 100vw"}]},"width":380,"height":290},"ImageSharp_hero":{"layout":"constrained","backgroundColor":"#787898","images":{"fallback":{"src":"/static/a381cbe123484c239b97a005d5ce4a00/5e493/image.jpg","srcSet":"/static/a381cbe123484c239b97a005d5ce4a00/696c0/image.jpg 800w,\n/static/a381cbe123484c239b97a005d5ce4a00/5e493/image.jpg 1600w","sizes":"(min-width: 1600px) 1600px, 100vw"},"sources":[{"srcSet":"/static/a381cbe123484c239b97a005d5ce4a00/c9f06/image.webp 800w,\n/static/a381cbe123484c239b97a005d5ce4a00/f47df/image.webp 1600w","type":"image/webp","sizes":"(min-width: 1600px) 1600px, 100vw"}]},"width":1600,"height":650}}},{"id":"a2dac9f8-f1b3-5273-8e5b-9d384a6caf28","title":"Researchers Develop Groundbreaking New Rocket Propulsion System","slug":"/researchers-develop-groundbreaking-new-rocket-propulsion-system/","link":null,"excerpt":"Primo in altis pelle alumnae Lorem markdownum obvius in seque opus, est bicorni forte; laeva…","timeToRead":1,"featured":null,"thumbnailText":null,"date":"April 16, 2020","category":{"id":"f3bd7f3a-1381-5200-8389-cc1370c94675","name":"Space","slug":"/category/space/","color":"#e9d8fd","icon":"/static/1de85bbd781531b61bf5a25b83d72d32/space.svg"},"author":{"id":"9851d150-0e3e-5c1f-8e83-9040e3b107c2","name":"Jane Smith","slug":"/author/jane-smith/","title":"Biochemist","description":"Sed commodo, est quis maximus fermentum, massa ipsum euismod neque, in varius risus tellus quis lacus. Sed ac bibendum odio.","skills":["DNA","Laboratory Instruments","Molecular "],"social":[{"name":"Instagram","url":"https://instagram.com/instagram"},{"name":"Twitter","url":"https://twitter.com/twitter"},{"name":"Website","url":"https://example.com"}],"thumbnail":{"__typename":"ImageSharp","ImageSharp_small":{"layout":"fixed","placeholder":{"fallback":"data:image/svg+xml,%3csvg%20xmlns='http://www.w3.org/2000/svg'%20width='48'%20height='48'%20viewBox='0%200%2048%2048'%20preserveAspectRatio='none'%3e%3cpath%20d='M15%203c-3%203-5%209-4%2013%201%201%200%203-1%205-3%204-2%2010%201%2010l3%201%202%201%202%201h6v-3c1-3-2-10-4-12-3-3-3-6-1-6l3-1c1-4%208-8%2010-7%205%203%205%2014%201%2018-2%201-4%207-2%205l1%201v2h1l2%203c1%202%202%203%204%201s2-4%200-8c-1-3-1-3%201-6%203-4%202-7-2-17l-2-4h-9C17%200%2017%200%2015%203'%20fill='%23d3d3d3'%20fill-rule='evenodd'/%3e%3c/svg%3e"},"images":{"fallback":{"src":"/static/ec552a7c1f96030de0601b3b204b16cf/a7a66/jane-smith.png","srcSet":"/static/ec552a7c1f96030de0601b3b204b16cf/a7a66/jane-smith.png 48w,\n/static/ec552a7c1f96030de0601b3b204b16cf/416a0/jane-smith.png 96w","sizes":"48px"},"sources":[{"srcSet":"/static/ec552a7c1f96030de0601b3b204b16cf/a3542/jane-smith.webp 48w,\n/static/ec552a7c1f96030de0601b3b204b16cf/0f66d/jane-smith.webp 96w","type":"image/webp","sizes":"48px"}]},"width":48,"height":48},"ImageSharp_regular":{"layout":"fixed","placeholder":{"fallback":"data:image/svg+xml,%3csvg%20xmlns='http://www.w3.org/2000/svg'%20width='48'%20height='48'%20viewBox='0%200%2048%2048'%20preserveAspectRatio='none'%3e%3cpath%20d='M15%203c-3%203-5%209-4%2013%201%201%200%203-1%205-3%204-2%2010%201%2010l3%201%202%201%202%201h6v-3c1-3-2-10-4-12-3-3-3-6-1-6l3-1c1-4%208-8%2010-7%205%203%205%2014%201%2018-2%201-4%207-2%205l1%201v2h1l2%203c1%202%202%203%204%201s2-4%200-8c-1-3-1-3%201-6%203-4%202-7-2-17l-2-4h-9C17%200%2017%200%2015%203'%20fill='%23d3d3d3'%20fill-rule='evenodd'/%3e%3c/svg%3e"},"images":{"fallback":{"src":"/static/ec552a7c1f96030de0601b3b204b16cf/46e60/jane-smith.png","srcSet":"/static/ec552a7c1f96030de0601b3b204b16cf/46e60/jane-smith.png 150w,\n/static/ec552a7c1f96030de0601b3b204b16cf/d612b/jane-smith.png 300w","sizes":"150px"},"sources":[{"srcSet":"/static/ec552a7c1f96030de0601b3b204b16cf/ae23d/jane-smith.webp 150w,\n/static/ec552a7c1f96030de0601b3b204b16cf/bd37b/jane-smith.webp 300w","type":"image/webp","sizes":"150px"}]},"width":150,"height":150}}},"thumbnail":{"__typename":"ImageSharp","ImageSharp_vertical":{"layout":"constrained","backgroundColor":"#787898","images":{"fallback":{"src":"/static/a381cbe123484c239b97a005d5ce4a00/144fe/image.jpg","srcSet":"/static/a381cbe123484c239b97a005d5ce4a00/9d7b9/image.jpg 190w,\n/static/a381cbe123484c239b97a005d5ce4a00/144fe/image.jpg 380w","sizes":"(min-width: 380px) 380px, 100vw"},"sources":[{"srcSet":"/static/a381cbe123484c239b97a005d5ce4a00/228d6/image.webp 190w,\n/static/a381cbe123484c239b97a005d5ce4a00/6b99c/image.webp 380w","type":"image/webp","sizes":"(min-width: 380px) 380px, 100vw"}]},"width":380,"height":290},"ImageSharp_hero":{"layout":"constrained","backgroundColor":"#787898","images":{"fallback":{"src":"/static/a381cbe123484c239b97a005d5ce4a00/5e493/image.jpg","srcSet":"/static/a381cbe123484c239b97a005d5ce4a00/696c0/image.jpg 800w,\n/static/a381cbe123484c239b97a005d5ce4a00/5e493/image.jpg 1600w","sizes":"(min-width: 1600px) 1600px, 100vw"},"sources":[{"srcSet":"/static/a381cbe123484c239b97a005d5ce4a00/c9f06/image.webp 800w,\n/static/a381cbe123484c239b97a005d5ce4a00/f47df/image.webp 1600w","type":"image/webp","sizes":"(min-width: 1600px) 1600px, 100vw"}]},"width":1600,"height":650}}},{"id":"383326cc-1cff-5925-bab0-524d8f7d13cd","title":"Scientists Discover The Nearest Known ‘Baby Giant Planet’","slug":"/scientists-discover-the-nearest-known-baby-giant-planet/","link":null,"excerpt":"Dona curvo sub evertere quam ultimus aridus Lorem markdownum , sub tecumque, posceret revertar…","timeToRead":1,"featured":null,"thumbnailText":null,"date":"April 16, 2020","category":{"id":"f3bd7f3a-1381-5200-8389-cc1370c94675","name":"Space","slug":"/category/space/","color":"#e9d8fd","icon":"/static/1de85bbd781531b61bf5a25b83d72d32/space.svg"},"author":{"id":"20a83d85-4b9e-506d-9bff-345a4bbe1a5c","name":"John Doe","slug":"/author/john-doe/","title":"Anthropologist","description":"Sed commodo, est quis maximus fermentum, massa ipsum euismod neque, in varius risus tellus quis lacus. Sed ac bibendum odio.","skills":["Early Hominids","Biology","Anthropology"],"social":[{"name":"Github","url":"https://github.com/johndoe"},{"name":"Twitter","url":"https://twitter.com/twitter"},{"name":"Website","url":"https://example.com"}],"thumbnail":{"__typename":"ImageSharp","ImageSharp_small":{"layout":"fixed","placeholder":{"fallback":"data:image/svg+xml,%3csvg%20xmlns='http://www.w3.org/2000/svg'%20width='48'%20height='48'%20viewBox='0%200%2048%2048'%20preserveAspectRatio='none'%3e%3cpath%20d='M22%203c-2%201-3%204-4%207l-2%205c-2%202-2%202-2-1l-2-3c-1%200-1%202%202%208%200%202%202%203%204%204%202%200%203%202%203%203h1c1-1%201-2-2-4l-4-5h1l2%201v-2c-2-1-2-1%200-1l2-2c0-6%204-9%2011-9%204%200%204%200%205%204v16c-1%201-1%201%200%200%202-3%203-11%201-19l-1-5h-6c-5%200-7%200-9%203m4%2023l3%202%203%201-2%203-2%203-4-4-5-4v21h18l-1-5c0-6%201-5%203%201l1%204v-5l-1-9c0-3-1-4-2-5-2-1-2-1-2%201%202%203%202%205%201%207-1%201-1-1-1-9%200-1-1-2-3-1l-4-1h-2'%20fill='%23d3d3d3'%20fill-rule='evenodd'/%3e%3c/svg%3e"},"images":{"fallback":{"src":"/static/011b3215b6b7e782f02d67aebfa4c319/a7a66/john-doe.png","srcSet":"/static/011b3215b6b7e782f02d67aebfa4c319/a7a66/john-doe.png 48w,\n/static/011b3215b6b7e782f02d67aebfa4c319/416a0/john-doe.png 96w","sizes":"48px"},"sources":[{"srcSet":"/static/011b3215b6b7e782f02d67aebfa4c319/a3542/john-doe.webp 48w,\n/static/011b3215b6b7e782f02d67aebfa4c319/0f66d/john-doe.webp 96w","type":"image/webp","sizes":"48px"}]},"width":48,"height":48},"ImageSharp_regular":{"layout":"fixed","placeholder":{"fallback":"data:image/svg+xml,%3csvg%20xmlns='http://www.w3.org/2000/svg'%20width='48'%20height='48'%20viewBox='0%200%2048%2048'%20preserveAspectRatio='none'%3e%3cpath%20d='M22%203c-2%201-3%204-4%207l-2%205c-2%202-2%202-2-1l-2-3c-1%200-1%202%202%208%200%202%202%203%204%204%202%200%203%202%203%203h1c1-1%201-2-2-4l-4-5h1l2%201v-2c-2-1-2-1%200-1l2-2c0-6%204-9%2011-9%204%200%204%200%205%204v16c-1%201-1%201%200%200%202-3%203-11%201-19l-1-5h-6c-5%200-7%200-9%203m4%2023l3%202%203%201-2%203-2%203-4-4-5-4v21h18l-1-5c0-6%201-5%203%201l1%204v-5l-1-9c0-3-1-4-2-5-2-1-2-1-2%201%202%203%202%205%201%207-1%201-1-1-1-9%200-1-1-2-3-1l-4-1h-2'%20fill='%23d3d3d3'%20fill-rule='evenodd'/%3e%3c/svg%3e"},"images":{"fallback":{"src":"/static/011b3215b6b7e782f02d67aebfa4c319/46e60/john-doe.png","srcSet":"/static/011b3215b6b7e782f02d67aebfa4c319/46e60/john-doe.png 150w,\n/static/011b3215b6b7e782f02d67aebfa4c319/d612b/john-doe.png 300w","sizes":"150px"},"sources":[{"srcSet":"/static/011b3215b6b7e782f02d67aebfa4c319/ae23d/john-doe.webp 150w,\n/static/011b3215b6b7e782f02d67aebfa4c319/bd37b/john-doe.webp 300w","type":"image/webp","sizes":"150px"}]},"width":150,"height":150}}},"thumbnail":{"__typename":"ImageSharp","ImageSharp_vertical":{"layout":"constrained","backgroundColor":"#787898","images":{"fallback":{"src":"/static/a381cbe123484c239b97a005d5ce4a00/144fe/image.jpg","srcSet":"/static/a381cbe123484c239b97a005d5ce4a00/9d7b9/image.jpg 190w,\n/static/a381cbe123484c239b97a005d5ce4a00/144fe/image.jpg 380w","sizes":"(min-width: 380px) 380px, 100vw"},"sources":[{"srcSet":"/static/a381cbe123484c239b97a005d5ce4a00/228d6/image.webp 190w,\n/static/a381cbe123484c239b97a005d5ce4a00/6b99c/image.webp 380w","type":"image/webp","sizes":"(min-width: 380px) 380px, 100vw"}]},"width":380,"height":290},"ImageSharp_hero":{"layout":"constrained","backgroundColor":"#787898","images":{"fallback":{"src":"/static/a381cbe123484c239b97a005d5ce4a00/5e493/image.jpg","srcSet":"/static/a381cbe123484c239b97a005d5ce4a00/696c0/image.jpg 800w,\n/static/a381cbe123484c239b97a005d5ce4a00/5e493/image.jpg 1600w","sizes":"(min-width: 1600px) 1600px, 100vw"},"sources":[{"srcSet":"/static/a381cbe123484c239b97a005d5ce4a00/c9f06/image.webp 800w,\n/static/a381cbe123484c239b97a005d5ce4a00/f47df/image.webp 1600w","type":"image/webp","sizes":"(min-width: 1600px) 1600px, 100vw"}]},"width":1600,"height":650}}},{"id":"1c6c2f74-fb64-5e91-bcbd-7ec170d5dd06","title":"New Ways To Mine On The Moon","slug":"/new-ways-to-mine-on-the-moon/","link":null,"excerpt":"Dona curvo sub evertere quam ultimus aridus Lorem markdownum , sub tecumque, posceret revertar…","timeToRead":1,"featured":null,"thumbnailText":null,"date":"April 16, 2020","category":{"id":"f3bd7f3a-1381-5200-8389-cc1370c94675","name":"Space","slug":"/category/space/","color":"#e9d8fd","icon":"/static/1de85bbd781531b61bf5a25b83d72d32/space.svg"},"author":{"id":"20a83d85-4b9e-506d-9bff-345a4bbe1a5c","name":"John Doe","slug":"/author/john-doe/","title":"Anthropologist","description":"Sed commodo, est quis maximus fermentum, massa ipsum euismod neque, in varius risus tellus quis lacus. Sed ac bibendum odio.","skills":["Early Hominids","Biology","Anthropology"],"social":[{"name":"Github","url":"https://github.com/johndoe"},{"name":"Twitter","url":"https://twitter.com/twitter"},{"name":"Website","url":"https://example.com"}],"thumbnail":{"__typename":"ImageSharp","ImageSharp_small":{"layout":"fixed","placeholder":{"fallback":"data:image/svg+xml,%3csvg%20xmlns='http://www.w3.org/2000/svg'%20width='48'%20height='48'%20viewBox='0%200%2048%2048'%20preserveAspectRatio='none'%3e%3cpath%20d='M22%203c-2%201-3%204-4%207l-2%205c-2%202-2%202-2-1l-2-3c-1%200-1%202%202%208%200%202%202%203%204%204%202%200%203%202%203%203h1c1-1%201-2-2-4l-4-5h1l2%201v-2c-2-1-2-1%200-1l2-2c0-6%204-9%2011-9%204%200%204%200%205%204v16c-1%201-1%201%200%200%202-3%203-11%201-19l-1-5h-6c-5%200-7%200-9%203m4%2023l3%202%203%201-2%203-2%203-4-4-5-4v21h18l-1-5c0-6%201-5%203%201l1%204v-5l-1-9c0-3-1-4-2-5-2-1-2-1-2%201%202%203%202%205%201%207-1%201-1-1-1-9%200-1-1-2-3-1l-4-1h-2'%20fill='%23d3d3d3'%20fill-rule='evenodd'/%3e%3c/svg%3e"},"images":{"fallback":{"src":"/static/011b3215b6b7e782f02d67aebfa4c319/a7a66/john-doe.png","srcSet":"/static/011b3215b6b7e782f02d67aebfa4c319/a7a66/john-doe.png 48w,\n/static/011b3215b6b7e782f02d67aebfa4c319/416a0/john-doe.png 96w","sizes":"48px"},"sources":[{"srcSet":"/static/011b3215b6b7e782f02d67aebfa4c319/a3542/john-doe.webp 48w,\n/static/011b3215b6b7e782f02d67aebfa4c319/0f66d/john-doe.webp 96w","type":"image/webp","sizes":"48px"}]},"width":48,"height":48},"ImageSharp_regular":{"layout":"fixed","placeholder":{"fallback":"data:image/svg+xml,%3csvg%20xmlns='http://www.w3.org/2000/svg'%20width='48'%20height='48'%20viewBox='0%200%2048%2048'%20preserveAspectRatio='none'%3e%3cpath%20d='M22%203c-2%201-3%204-4%207l-2%205c-2%202-2%202-2-1l-2-3c-1%200-1%202%202%208%200%202%202%203%204%204%202%200%203%202%203%203h1c1-1%201-2-2-4l-4-5h1l2%201v-2c-2-1-2-1%200-1l2-2c0-6%204-9%2011-9%204%200%204%200%205%204v16c-1%201-1%201%200%200%202-3%203-11%201-19l-1-5h-6c-5%200-7%200-9%203m4%2023l3%202%203%201-2%203-2%203-4-4-5-4v21h18l-1-5c0-6%201-5%203%201l1%204v-5l-1-9c0-3-1-4-2-5-2-1-2-1-2%201%202%203%202%205%201%207-1%201-1-1-1-9%200-1-1-2-3-1l-4-1h-2'%20fill='%23d3d3d3'%20fill-rule='evenodd'/%3e%3c/svg%3e"},"images":{"fallback":{"src":"/static/011b3215b6b7e782f02d67aebfa4c319/46e60/john-doe.png","srcSet":"/static/011b3215b6b7e782f02d67aebfa4c319/46e60/john-doe.png 150w,\n/static/011b3215b6b7e782f02d67aebfa4c319/d612b/john-doe.png 300w","sizes":"150px"},"sources":[{"srcSet":"/static/011b3215b6b7e782f02d67aebfa4c319/ae23d/john-doe.webp 150w,\n/static/011b3215b6b7e782f02d67aebfa4c319/bd37b/john-doe.webp 300w","type":"image/webp","sizes":"150px"}]},"width":150,"height":150}}},"thumbnail":{"__typename":"ImageSharp","ImageSharp_vertical":{"layout":"constrained","backgroundColor":"#787898","images":{"fallback":{"src":"/static/a381cbe123484c239b97a005d5ce4a00/144fe/image.jpg","srcSet":"/static/a381cbe123484c239b97a005d5ce4a00/9d7b9/image.jpg 190w,\n/static/a381cbe123484c239b97a005d5ce4a00/144fe/image.jpg 380w","sizes":"(min-width: 380px) 380px, 100vw"},"sources":[{"srcSet":"/static/a381cbe123484c239b97a005d5ce4a00/228d6/image.webp 190w,\n/static/a381cbe123484c239b97a005d5ce4a00/6b99c/image.webp 380w","type":"image/webp","sizes":"(min-width: 380px) 380px, 100vw"}]},"width":380,"height":290},"ImageSharp_hero":{"layout":"constrained","backgroundColor":"#787898","images":{"fallback":{"src":"/static/a381cbe123484c239b97a005d5ce4a00/5e493/image.jpg","srcSet":"/static/a381cbe123484c239b97a005d5ce4a00/696c0/image.jpg 800w,\n/static/a381cbe123484c239b97a005d5ce4a00/5e493/image.jpg 1600w","sizes":"(min-width: 1600px) 1600px, 100vw"},"sources":[{"srcSet":"/static/a381cbe123484c239b97a005d5ce4a00/c9f06/image.webp 800w,\n/static/a381cbe123484c239b97a005d5ce4a00/f47df/image.webp 1600w","type":"image/webp","sizes":"(min-width: 1600px) 1600px, 100vw"}]},"width":1600,"height":650}}}],"pageInfo":{"pageCount":7,"hasPreviousPage":false,"hasNextPage":true,"currentPage":1},"totalCount":38}},"pageContext":{"slug":"/tag/business/","limit":6,"skip":0,"collectionType":"tags","paginatePostsPage":false,"basePath":"/","services":{"algolia":false,"mailchimp":false,"disqus":false,"graphComment":false,"facebookComment":false},"siteUrl":null,"mobileMenu":{"title":"Topics","items":[{"name":"Physics & Mathematics","slug":"/category/physics-and-mathematics/"},{"name":"Energy & Environment","slug":"/category/energy-and-environment/"},{"name":"Space","slug":"/category/space/"},{"name":"Technology","slug":"/category/technology/"}]},"darkMode":true,"includeExcerpt":true,"includeTimeToRead":true,"includeTableOfContents":true,"imageQuality":75}},
    "staticQueryHashes": ["1992822086","3117598128"]}