{
    "componentChunkName": "component---packages-blog-gatsby-blog-core-src-templates-collection-tag-js",
    "path": "/tag/innovation/",
    "result": {"data":{"collectionInfo":{"id":"1b26ff46-fd88-589b-90a4-80d289536ebb","name":"#innovation","slug":"/tag/innovation/"},"posts":{"nodes":[{"id":"6c41697c-4fc8-524e-9f2e-a7e13f04305d","title":"Using Satellites And AI To Help Fight Poverty In Africa","slug":"/using-satellites-and-ai-to-help-fight-poverty-in-africa/","link":null,"excerpt":"Primo in altis pelle alumnae Lorem markdownum obvius in seque opus, est bicorni forte; laeva…","timeToRead":1,"featured":true,"thumbnailText":null,"date":"June 02, 2020","category":{"id":"0b5ac4a8-ae62-515b-af2d-6c97757a2cee","name":"Technology","slug":"/category/technology/","color":"#bee3f8","icon":"/static/f41361d1715191a688f7243a90b28bc7/technology.svg"},"author":{"id":"20a83d85-4b9e-506d-9bff-345a4bbe1a5c","name":"John Doe","slug":"/author/john-doe/","title":"Anthropologist","description":"Sed commodo, est quis maximus fermentum, massa ipsum euismod neque, in varius risus tellus quis lacus. Sed ac bibendum odio.","skills":["Early Hominids","Biology","Anthropology"],"social":[{"name":"Github","url":"https://github.com/johndoe"},{"name":"Twitter","url":"https://twitter.com/twitter"},{"name":"Website","url":"https://example.com"}],"thumbnail":{"__typename":"ImageSharp","ImageSharp_small":{"layout":"fixed","placeholder":{"fallback":"data:image/svg+xml,%3csvg%20xmlns='http://www.w3.org/2000/svg'%20width='48'%20height='48'%20viewBox='0%200%2048%2048'%20preserveAspectRatio='none'%3e%3cpath%20d='M22%203c-2%201-3%204-4%207l-2%205c-2%202-2%202-2-1l-2-3c-1%200-1%202%202%208%200%202%202%203%204%204%202%200%203%202%203%203h1c1-1%201-2-2-4l-4-5h1l2%201v-2c-2-1-2-1%200-1l2-2c0-6%204-9%2011-9%204%200%204%200%205%204v16c-1%201-1%201%200%200%202-3%203-11%201-19l-1-5h-6c-5%200-7%200-9%203m4%2023l3%202%203%201-2%203-2%203-4-4-5-4v21h18l-1-5c0-6%201-5%203%201l1%204v-5l-1-9c0-3-1-4-2-5-2-1-2-1-2%201%202%203%202%205%201%207-1%201-1-1-1-9%200-1-1-2-3-1l-4-1h-2'%20fill='%23d3d3d3'%20fill-rule='evenodd'/%3e%3c/svg%3e"},"images":{"fallback":{"src":"/static/011b3215b6b7e782f02d67aebfa4c319/a7a66/john-doe.png","srcSet":"/static/011b3215b6b7e782f02d67aebfa4c319/a7a66/john-doe.png 48w,\n/static/011b3215b6b7e782f02d67aebfa4c319/416a0/john-doe.png 96w","sizes":"48px"},"sources":[{"srcSet":"/static/011b3215b6b7e782f02d67aebfa4c319/a3542/john-doe.webp 48w,\n/static/011b3215b6b7e782f02d67aebfa4c319/0f66d/john-doe.webp 96w","type":"image/webp","sizes":"48px"}]},"width":48,"height":48},"ImageSharp_regular":{"layout":"fixed","placeholder":{"fallback":"data:image/svg+xml,%3csvg%20xmlns='http://www.w3.org/2000/svg'%20width='48'%20height='48'%20viewBox='0%200%2048%2048'%20preserveAspectRatio='none'%3e%3cpath%20d='M22%203c-2%201-3%204-4%207l-2%205c-2%202-2%202-2-1l-2-3c-1%200-1%202%202%208%200%202%202%203%204%204%202%200%203%202%203%203h1c1-1%201-2-2-4l-4-5h1l2%201v-2c-2-1-2-1%200-1l2-2c0-6%204-9%2011-9%204%200%204%200%205%204v16c-1%201-1%201%200%200%202-3%203-11%201-19l-1-5h-6c-5%200-7%200-9%203m4%2023l3%202%203%201-2%203-2%203-4-4-5-4v21h18l-1-5c0-6%201-5%203%201l1%204v-5l-1-9c0-3-1-4-2-5-2-1-2-1-2%201%202%203%202%205%201%207-1%201-1-1-1-9%200-1-1-2-3-1l-4-1h-2'%20fill='%23d3d3d3'%20fill-rule='evenodd'/%3e%3c/svg%3e"},"images":{"fallback":{"src":"/static/011b3215b6b7e782f02d67aebfa4c319/46e60/john-doe.png","srcSet":"/static/011b3215b6b7e782f02d67aebfa4c319/46e60/john-doe.png 150w,\n/static/011b3215b6b7e782f02d67aebfa4c319/d612b/john-doe.png 300w","sizes":"150px"},"sources":[{"srcSet":"/static/011b3215b6b7e782f02d67aebfa4c319/ae23d/john-doe.webp 150w,\n/static/011b3215b6b7e782f02d67aebfa4c319/bd37b/john-doe.webp 300w","type":"image/webp","sizes":"150px"}]},"width":150,"height":150}}},"thumbnail":{"__typename":"ImageSharp","ImageSharp_vertical":{"layout":"constrained","backgroundColor":"#787898","images":{"fallback":{"src":"/static/a381cbe123484c239b97a005d5ce4a00/144fe/image.jpg","srcSet":"/static/a381cbe123484c239b97a005d5ce4a00/9d7b9/image.jpg 190w,\n/static/a381cbe123484c239b97a005d5ce4a00/144fe/image.jpg 380w","sizes":"(min-width: 380px) 380px, 100vw"},"sources":[{"srcSet":"/static/a381cbe123484c239b97a005d5ce4a00/228d6/image.webp 190w,\n/static/a381cbe123484c239b97a005d5ce4a00/6b99c/image.webp 380w","type":"image/webp","sizes":"(min-width: 380px) 380px, 100vw"}]},"width":380,"height":290},"ImageSharp_hero":{"layout":"constrained","backgroundColor":"#787898","images":{"fallback":{"src":"/static/a381cbe123484c239b97a005d5ce4a00/5e493/image.jpg","srcSet":"/static/a381cbe123484c239b97a005d5ce4a00/696c0/image.jpg 800w,\n/static/a381cbe123484c239b97a005d5ce4a00/5e493/image.jpg 1600w","sizes":"(min-width: 1600px) 1600px, 100vw"},"sources":[{"srcSet":"/static/a381cbe123484c239b97a005d5ce4a00/c9f06/image.webp 800w,\n/static/a381cbe123484c239b97a005d5ce4a00/f47df/image.webp 1600w","type":"image/webp","sizes":"(min-width: 1600px) 1600px, 100vw"}]},"width":1600,"height":650}}},{"id":"331dd980-87fc-56f1-b3c7-98595ff44352","title":"What Social Media Can Reveal About A Community’s Well Being","slug":"/what-social-media-can-reveal-about-a-communitys-well-being/","link":null,"excerpt":"Primo in altis pelle alumnae Lorem markdownum obvius in seque opus, est bicorni forte; laeva…","timeToRead":1,"featured":null,"thumbnailText":null,"date":"April 02, 2020","category":{"id":"0b5ac4a8-ae62-515b-af2d-6c97757a2cee","name":"Technology","slug":"/category/technology/","color":"#bee3f8","icon":"/static/f41361d1715191a688f7243a90b28bc7/technology.svg"},"author":{"id":"20a83d85-4b9e-506d-9bff-345a4bbe1a5c","name":"John Doe","slug":"/author/john-doe/","title":"Anthropologist","description":"Sed commodo, est quis maximus fermentum, massa ipsum euismod neque, in varius risus tellus quis lacus. Sed ac bibendum odio.","skills":["Early Hominids","Biology","Anthropology"],"social":[{"name":"Github","url":"https://github.com/johndoe"},{"name":"Twitter","url":"https://twitter.com/twitter"},{"name":"Website","url":"https://example.com"}],"thumbnail":{"__typename":"ImageSharp","ImageSharp_small":{"layout":"fixed","placeholder":{"fallback":"data:image/svg+xml,%3csvg%20xmlns='http://www.w3.org/2000/svg'%20width='48'%20height='48'%20viewBox='0%200%2048%2048'%20preserveAspectRatio='none'%3e%3cpath%20d='M22%203c-2%201-3%204-4%207l-2%205c-2%202-2%202-2-1l-2-3c-1%200-1%202%202%208%200%202%202%203%204%204%202%200%203%202%203%203h1c1-1%201-2-2-4l-4-5h1l2%201v-2c-2-1-2-1%200-1l2-2c0-6%204-9%2011-9%204%200%204%200%205%204v16c-1%201-1%201%200%200%202-3%203-11%201-19l-1-5h-6c-5%200-7%200-9%203m4%2023l3%202%203%201-2%203-2%203-4-4-5-4v21h18l-1-5c0-6%201-5%203%201l1%204v-5l-1-9c0-3-1-4-2-5-2-1-2-1-2%201%202%203%202%205%201%207-1%201-1-1-1-9%200-1-1-2-3-1l-4-1h-2'%20fill='%23d3d3d3'%20fill-rule='evenodd'/%3e%3c/svg%3e"},"images":{"fallback":{"src":"/static/011b3215b6b7e782f02d67aebfa4c319/a7a66/john-doe.png","srcSet":"/static/011b3215b6b7e782f02d67aebfa4c319/a7a66/john-doe.png 48w,\n/static/011b3215b6b7e782f02d67aebfa4c319/416a0/john-doe.png 96w","sizes":"48px"},"sources":[{"srcSet":"/static/011b3215b6b7e782f02d67aebfa4c319/a3542/john-doe.webp 48w,\n/static/011b3215b6b7e782f02d67aebfa4c319/0f66d/john-doe.webp 96w","type":"image/webp","sizes":"48px"}]},"width":48,"height":48},"ImageSharp_regular":{"layout":"fixed","placeholder":{"fallback":"data:image/svg+xml,%3csvg%20xmlns='http://www.w3.org/2000/svg'%20width='48'%20height='48'%20viewBox='0%200%2048%2048'%20preserveAspectRatio='none'%3e%3cpath%20d='M22%203c-2%201-3%204-4%207l-2%205c-2%202-2%202-2-1l-2-3c-1%200-1%202%202%208%200%202%202%203%204%204%202%200%203%202%203%203h1c1-1%201-2-2-4l-4-5h1l2%201v-2c-2-1-2-1%200-1l2-2c0-6%204-9%2011-9%204%200%204%200%205%204v16c-1%201-1%201%200%200%202-3%203-11%201-19l-1-5h-6c-5%200-7%200-9%203m4%2023l3%202%203%201-2%203-2%203-4-4-5-4v21h18l-1-5c0-6%201-5%203%201l1%204v-5l-1-9c0-3-1-4-2-5-2-1-2-1-2%201%202%203%202%205%201%207-1%201-1-1-1-9%200-1-1-2-3-1l-4-1h-2'%20fill='%23d3d3d3'%20fill-rule='evenodd'/%3e%3c/svg%3e"},"images":{"fallback":{"src":"/static/011b3215b6b7e782f02d67aebfa4c319/46e60/john-doe.png","srcSet":"/static/011b3215b6b7e782f02d67aebfa4c319/46e60/john-doe.png 150w,\n/static/011b3215b6b7e782f02d67aebfa4c319/d612b/john-doe.png 300w","sizes":"150px"},"sources":[{"srcSet":"/static/011b3215b6b7e782f02d67aebfa4c319/ae23d/john-doe.webp 150w,\n/static/011b3215b6b7e782f02d67aebfa4c319/bd37b/john-doe.webp 300w","type":"image/webp","sizes":"150px"}]},"width":150,"height":150}}},"thumbnail":{"__typename":"ImageSharp","ImageSharp_vertical":{"layout":"constrained","backgroundColor":"#787898","images":{"fallback":{"src":"/static/a381cbe123484c239b97a005d5ce4a00/144fe/image.jpg","srcSet":"/static/a381cbe123484c239b97a005d5ce4a00/9d7b9/image.jpg 190w,\n/static/a381cbe123484c239b97a005d5ce4a00/144fe/image.jpg 380w","sizes":"(min-width: 380px) 380px, 100vw"},"sources":[{"srcSet":"/static/a381cbe123484c239b97a005d5ce4a00/228d6/image.webp 190w,\n/static/a381cbe123484c239b97a005d5ce4a00/6b99c/image.webp 380w","type":"image/webp","sizes":"(min-width: 380px) 380px, 100vw"}]},"width":380,"height":290},"ImageSharp_hero":{"layout":"constrained","backgroundColor":"#787898","images":{"fallback":{"src":"/static/a381cbe123484c239b97a005d5ce4a00/5e493/image.jpg","srcSet":"/static/a381cbe123484c239b97a005d5ce4a00/696c0/image.jpg 800w,\n/static/a381cbe123484c239b97a005d5ce4a00/5e493/image.jpg 1600w","sizes":"(min-width: 1600px) 1600px, 100vw"},"sources":[{"srcSet":"/static/a381cbe123484c239b97a005d5ce4a00/c9f06/image.webp 800w,\n/static/a381cbe123484c239b97a005d5ce4a00/f47df/image.webp 1600w","type":"image/webp","sizes":"(min-width: 1600px) 1600px, 100vw"}]},"width":1600,"height":650}}},{"id":"450a6b36-c576-5a29-8d32-365304dbe944","title":"Wirelessly Charging Electric Cars As They Drive","slug":"/wirelessly-charging-electric-cars-as-they-drive/","link":null,"excerpt":"Primo in altis pelle alumnae Lorem markdownum obvius in seque opus, est bicorni forte; laeva…","timeToRead":1,"featured":null,"thumbnailText":null,"date":"April 02, 2020","category":{"id":"0b5ac4a8-ae62-515b-af2d-6c97757a2cee","name":"Technology","slug":"/category/technology/","color":"#bee3f8","icon":"/static/f41361d1715191a688f7243a90b28bc7/technology.svg"},"author":{"id":"20a83d85-4b9e-506d-9bff-345a4bbe1a5c","name":"John Doe","slug":"/author/john-doe/","title":"Anthropologist","description":"Sed commodo, est quis maximus fermentum, massa ipsum euismod neque, in varius risus tellus quis lacus. Sed ac bibendum odio.","skills":["Early Hominids","Biology","Anthropology"],"social":[{"name":"Github","url":"https://github.com/johndoe"},{"name":"Twitter","url":"https://twitter.com/twitter"},{"name":"Website","url":"https://example.com"}],"thumbnail":{"__typename":"ImageSharp","ImageSharp_small":{"layout":"fixed","placeholder":{"fallback":"data:image/svg+xml,%3csvg%20xmlns='http://www.w3.org/2000/svg'%20width='48'%20height='48'%20viewBox='0%200%2048%2048'%20preserveAspectRatio='none'%3e%3cpath%20d='M22%203c-2%201-3%204-4%207l-2%205c-2%202-2%202-2-1l-2-3c-1%200-1%202%202%208%200%202%202%203%204%204%202%200%203%202%203%203h1c1-1%201-2-2-4l-4-5h1l2%201v-2c-2-1-2-1%200-1l2-2c0-6%204-9%2011-9%204%200%204%200%205%204v16c-1%201-1%201%200%200%202-3%203-11%201-19l-1-5h-6c-5%200-7%200-9%203m4%2023l3%202%203%201-2%203-2%203-4-4-5-4v21h18l-1-5c0-6%201-5%203%201l1%204v-5l-1-9c0-3-1-4-2-5-2-1-2-1-2%201%202%203%202%205%201%207-1%201-1-1-1-9%200-1-1-2-3-1l-4-1h-2'%20fill='%23d3d3d3'%20fill-rule='evenodd'/%3e%3c/svg%3e"},"images":{"fallback":{"src":"/static/011b3215b6b7e782f02d67aebfa4c319/a7a66/john-doe.png","srcSet":"/static/011b3215b6b7e782f02d67aebfa4c319/a7a66/john-doe.png 48w,\n/static/011b3215b6b7e782f02d67aebfa4c319/416a0/john-doe.png 96w","sizes":"48px"},"sources":[{"srcSet":"/static/011b3215b6b7e782f02d67aebfa4c319/a3542/john-doe.webp 48w,\n/static/011b3215b6b7e782f02d67aebfa4c319/0f66d/john-doe.webp 96w","type":"image/webp","sizes":"48px"}]},"width":48,"height":48},"ImageSharp_regular":{"layout":"fixed","placeholder":{"fallback":"data:image/svg+xml,%3csvg%20xmlns='http://www.w3.org/2000/svg'%20width='48'%20height='48'%20viewBox='0%200%2048%2048'%20preserveAspectRatio='none'%3e%3cpath%20d='M22%203c-2%201-3%204-4%207l-2%205c-2%202-2%202-2-1l-2-3c-1%200-1%202%202%208%200%202%202%203%204%204%202%200%203%202%203%203h1c1-1%201-2-2-4l-4-5h1l2%201v-2c-2-1-2-1%200-1l2-2c0-6%204-9%2011-9%204%200%204%200%205%204v16c-1%201-1%201%200%200%202-3%203-11%201-19l-1-5h-6c-5%200-7%200-9%203m4%2023l3%202%203%201-2%203-2%203-4-4-5-4v21h18l-1-5c0-6%201-5%203%201l1%204v-5l-1-9c0-3-1-4-2-5-2-1-2-1-2%201%202%203%202%205%201%207-1%201-1-1-1-9%200-1-1-2-3-1l-4-1h-2'%20fill='%23d3d3d3'%20fill-rule='evenodd'/%3e%3c/svg%3e"},"images":{"fallback":{"src":"/static/011b3215b6b7e782f02d67aebfa4c319/46e60/john-doe.png","srcSet":"/static/011b3215b6b7e782f02d67aebfa4c319/46e60/john-doe.png 150w,\n/static/011b3215b6b7e782f02d67aebfa4c319/d612b/john-doe.png 300w","sizes":"150px"},"sources":[{"srcSet":"/static/011b3215b6b7e782f02d67aebfa4c319/ae23d/john-doe.webp 150w,\n/static/011b3215b6b7e782f02d67aebfa4c319/bd37b/john-doe.webp 300w","type":"image/webp","sizes":"150px"}]},"width":150,"height":150}}},"thumbnail":{"__typename":"ImageSharp","ImageSharp_vertical":{"layout":"constrained","backgroundColor":"#787898","images":{"fallback":{"src":"/static/a381cbe123484c239b97a005d5ce4a00/144fe/image.jpg","srcSet":"/static/a381cbe123484c239b97a005d5ce4a00/9d7b9/image.jpg 190w,\n/static/a381cbe123484c239b97a005d5ce4a00/144fe/image.jpg 380w","sizes":"(min-width: 380px) 380px, 100vw"},"sources":[{"srcSet":"/static/a381cbe123484c239b97a005d5ce4a00/228d6/image.webp 190w,\n/static/a381cbe123484c239b97a005d5ce4a00/6b99c/image.webp 380w","type":"image/webp","sizes":"(min-width: 380px) 380px, 100vw"}]},"width":380,"height":290},"ImageSharp_hero":{"layout":"constrained","backgroundColor":"#787898","images":{"fallback":{"src":"/static/a381cbe123484c239b97a005d5ce4a00/5e493/image.jpg","srcSet":"/static/a381cbe123484c239b97a005d5ce4a00/696c0/image.jpg 800w,\n/static/a381cbe123484c239b97a005d5ce4a00/5e493/image.jpg 1600w","sizes":"(min-width: 1600px) 1600px, 100vw"},"sources":[{"srcSet":"/static/a381cbe123484c239b97a005d5ce4a00/c9f06/image.webp 800w,\n/static/a381cbe123484c239b97a005d5ce4a00/f47df/image.webp 1600w","type":"image/webp","sizes":"(min-width: 1600px) 1600px, 100vw"}]},"width":1600,"height":650}}},{"id":"95934863-4a65-5b07-822c-b59bbccbdd9e","title":"New Technology Enables Fast Protein Synthesis","slug":"/new-technology-enables-fast-protein-synthesis/","link":null,"excerpt":"Primo in altis pelle alumnae Lorem markdownum obvius in seque opus, est bicorni forte; laeva…","timeToRead":1,"featured":null,"thumbnailText":null,"date":"April 02, 2020","category":{"id":"0b5ac4a8-ae62-515b-af2d-6c97757a2cee","name":"Technology","slug":"/category/technology/","color":"#bee3f8","icon":"/static/f41361d1715191a688f7243a90b28bc7/technology.svg"},"author":{"id":"20a83d85-4b9e-506d-9bff-345a4bbe1a5c","name":"John Doe","slug":"/author/john-doe/","title":"Anthropologist","description":"Sed commodo, est quis maximus fermentum, massa ipsum euismod neque, in varius risus tellus quis lacus. Sed ac bibendum odio.","skills":["Early Hominids","Biology","Anthropology"],"social":[{"name":"Github","url":"https://github.com/johndoe"},{"name":"Twitter","url":"https://twitter.com/twitter"},{"name":"Website","url":"https://example.com"}],"thumbnail":{"__typename":"ImageSharp","ImageSharp_small":{"layout":"fixed","placeholder":{"fallback":"data:image/svg+xml,%3csvg%20xmlns='http://www.w3.org/2000/svg'%20width='48'%20height='48'%20viewBox='0%200%2048%2048'%20preserveAspectRatio='none'%3e%3cpath%20d='M22%203c-2%201-3%204-4%207l-2%205c-2%202-2%202-2-1l-2-3c-1%200-1%202%202%208%200%202%202%203%204%204%202%200%203%202%203%203h1c1-1%201-2-2-4l-4-5h1l2%201v-2c-2-1-2-1%200-1l2-2c0-6%204-9%2011-9%204%200%204%200%205%204v16c-1%201-1%201%200%200%202-3%203-11%201-19l-1-5h-6c-5%200-7%200-9%203m4%2023l3%202%203%201-2%203-2%203-4-4-5-4v21h18l-1-5c0-6%201-5%203%201l1%204v-5l-1-9c0-3-1-4-2-5-2-1-2-1-2%201%202%203%202%205%201%207-1%201-1-1-1-9%200-1-1-2-3-1l-4-1h-2'%20fill='%23d3d3d3'%20fill-rule='evenodd'/%3e%3c/svg%3e"},"images":{"fallback":{"src":"/static/011b3215b6b7e782f02d67aebfa4c319/a7a66/john-doe.png","srcSet":"/static/011b3215b6b7e782f02d67aebfa4c319/a7a66/john-doe.png 48w,\n/static/011b3215b6b7e782f02d67aebfa4c319/416a0/john-doe.png 96w","sizes":"48px"},"sources":[{"srcSet":"/static/011b3215b6b7e782f02d67aebfa4c319/a3542/john-doe.webp 48w,\n/static/011b3215b6b7e782f02d67aebfa4c319/0f66d/john-doe.webp 96w","type":"image/webp","sizes":"48px"}]},"width":48,"height":48},"ImageSharp_regular":{"layout":"fixed","placeholder":{"fallback":"data:image/svg+xml,%3csvg%20xmlns='http://www.w3.org/2000/svg'%20width='48'%20height='48'%20viewBox='0%200%2048%2048'%20preserveAspectRatio='none'%3e%3cpath%20d='M22%203c-2%201-3%204-4%207l-2%205c-2%202-2%202-2-1l-2-3c-1%200-1%202%202%208%200%202%202%203%204%204%202%200%203%202%203%203h1c1-1%201-2-2-4l-4-5h1l2%201v-2c-2-1-2-1%200-1l2-2c0-6%204-9%2011-9%204%200%204%200%205%204v16c-1%201-1%201%200%200%202-3%203-11%201-19l-1-5h-6c-5%200-7%200-9%203m4%2023l3%202%203%201-2%203-2%203-4-4-5-4v21h18l-1-5c0-6%201-5%203%201l1%204v-5l-1-9c0-3-1-4-2-5-2-1-2-1-2%201%202%203%202%205%201%207-1%201-1-1-1-9%200-1-1-2-3-1l-4-1h-2'%20fill='%23d3d3d3'%20fill-rule='evenodd'/%3e%3c/svg%3e"},"images":{"fallback":{"src":"/static/011b3215b6b7e782f02d67aebfa4c319/46e60/john-doe.png","srcSet":"/static/011b3215b6b7e782f02d67aebfa4c319/46e60/john-doe.png 150w,\n/static/011b3215b6b7e782f02d67aebfa4c319/d612b/john-doe.png 300w","sizes":"150px"},"sources":[{"srcSet":"/static/011b3215b6b7e782f02d67aebfa4c319/ae23d/john-doe.webp 150w,\n/static/011b3215b6b7e782f02d67aebfa4c319/bd37b/john-doe.webp 300w","type":"image/webp","sizes":"150px"}]},"width":150,"height":150}}},"thumbnail":{"__typename":"ImageSharp","ImageSharp_vertical":{"layout":"constrained","backgroundColor":"#787898","images":{"fallback":{"src":"/static/a381cbe123484c239b97a005d5ce4a00/144fe/image.jpg","srcSet":"/static/a381cbe123484c239b97a005d5ce4a00/9d7b9/image.jpg 190w,\n/static/a381cbe123484c239b97a005d5ce4a00/144fe/image.jpg 380w","sizes":"(min-width: 380px) 380px, 100vw"},"sources":[{"srcSet":"/static/a381cbe123484c239b97a005d5ce4a00/228d6/image.webp 190w,\n/static/a381cbe123484c239b97a005d5ce4a00/6b99c/image.webp 380w","type":"image/webp","sizes":"(min-width: 380px) 380px, 100vw"}]},"width":380,"height":290},"ImageSharp_hero":{"layout":"constrained","backgroundColor":"#787898","images":{"fallback":{"src":"/static/a381cbe123484c239b97a005d5ce4a00/5e493/image.jpg","srcSet":"/static/a381cbe123484c239b97a005d5ce4a00/696c0/image.jpg 800w,\n/static/a381cbe123484c239b97a005d5ce4a00/5e493/image.jpg 1600w","sizes":"(min-width: 1600px) 1600px, 100vw"},"sources":[{"srcSet":"/static/a381cbe123484c239b97a005d5ce4a00/c9f06/image.webp 800w,\n/static/a381cbe123484c239b97a005d5ce4a00/f47df/image.webp 1600w","type":"image/webp","sizes":"(min-width: 1600px) 1600px, 100vw"}]},"width":1600,"height":650}}},{"id":"eb169cad-f4df-58db-a1e0-a88c40af0d1f","title":"New Device Simulates Feel Of Walls Solid Objects In Virtual Reality","slug":"/new-device-simulates-feel-of-walls-solid-objects-in-virtual-reality/","link":null,"excerpt":"Primo in altis pelle alumnae Lorem markdownum obvius in seque opus, est bicorni forte; laeva…","timeToRead":1,"featured":null,"thumbnailText":null,"date":"April 02, 2020","category":{"id":"0b5ac4a8-ae62-515b-af2d-6c97757a2cee","name":"Technology","slug":"/category/technology/","color":"#bee3f8","icon":"/static/f41361d1715191a688f7243a90b28bc7/technology.svg"},"author":{"id":"20a83d85-4b9e-506d-9bff-345a4bbe1a5c","name":"John Doe","slug":"/author/john-doe/","title":"Anthropologist","description":"Sed commodo, est quis maximus fermentum, massa ipsum euismod neque, in varius risus tellus quis lacus. Sed ac bibendum odio.","skills":["Early Hominids","Biology","Anthropology"],"social":[{"name":"Github","url":"https://github.com/johndoe"},{"name":"Twitter","url":"https://twitter.com/twitter"},{"name":"Website","url":"https://example.com"}],"thumbnail":{"__typename":"ImageSharp","ImageSharp_small":{"layout":"fixed","placeholder":{"fallback":"data:image/svg+xml,%3csvg%20xmlns='http://www.w3.org/2000/svg'%20width='48'%20height='48'%20viewBox='0%200%2048%2048'%20preserveAspectRatio='none'%3e%3cpath%20d='M22%203c-2%201-3%204-4%207l-2%205c-2%202-2%202-2-1l-2-3c-1%200-1%202%202%208%200%202%202%203%204%204%202%200%203%202%203%203h1c1-1%201-2-2-4l-4-5h1l2%201v-2c-2-1-2-1%200-1l2-2c0-6%204-9%2011-9%204%200%204%200%205%204v16c-1%201-1%201%200%200%202-3%203-11%201-19l-1-5h-6c-5%200-7%200-9%203m4%2023l3%202%203%201-2%203-2%203-4-4-5-4v21h18l-1-5c0-6%201-5%203%201l1%204v-5l-1-9c0-3-1-4-2-5-2-1-2-1-2%201%202%203%202%205%201%207-1%201-1-1-1-9%200-1-1-2-3-1l-4-1h-2'%20fill='%23d3d3d3'%20fill-rule='evenodd'/%3e%3c/svg%3e"},"images":{"fallback":{"src":"/static/011b3215b6b7e782f02d67aebfa4c319/a7a66/john-doe.png","srcSet":"/static/011b3215b6b7e782f02d67aebfa4c319/a7a66/john-doe.png 48w,\n/static/011b3215b6b7e782f02d67aebfa4c319/416a0/john-doe.png 96w","sizes":"48px"},"sources":[{"srcSet":"/static/011b3215b6b7e782f02d67aebfa4c319/a3542/john-doe.webp 48w,\n/static/011b3215b6b7e782f02d67aebfa4c319/0f66d/john-doe.webp 96w","type":"image/webp","sizes":"48px"}]},"width":48,"height":48},"ImageSharp_regular":{"layout":"fixed","placeholder":{"fallback":"data:image/svg+xml,%3csvg%20xmlns='http://www.w3.org/2000/svg'%20width='48'%20height='48'%20viewBox='0%200%2048%2048'%20preserveAspectRatio='none'%3e%3cpath%20d='M22%203c-2%201-3%204-4%207l-2%205c-2%202-2%202-2-1l-2-3c-1%200-1%202%202%208%200%202%202%203%204%204%202%200%203%202%203%203h1c1-1%201-2-2-4l-4-5h1l2%201v-2c-2-1-2-1%200-1l2-2c0-6%204-9%2011-9%204%200%204%200%205%204v16c-1%201-1%201%200%200%202-3%203-11%201-19l-1-5h-6c-5%200-7%200-9%203m4%2023l3%202%203%201-2%203-2%203-4-4-5-4v21h18l-1-5c0-6%201-5%203%201l1%204v-5l-1-9c0-3-1-4-2-5-2-1-2-1-2%201%202%203%202%205%201%207-1%201-1-1-1-9%200-1-1-2-3-1l-4-1h-2'%20fill='%23d3d3d3'%20fill-rule='evenodd'/%3e%3c/svg%3e"},"images":{"fallback":{"src":"/static/011b3215b6b7e782f02d67aebfa4c319/46e60/john-doe.png","srcSet":"/static/011b3215b6b7e782f02d67aebfa4c319/46e60/john-doe.png 150w,\n/static/011b3215b6b7e782f02d67aebfa4c319/d612b/john-doe.png 300w","sizes":"150px"},"sources":[{"srcSet":"/static/011b3215b6b7e782f02d67aebfa4c319/ae23d/john-doe.webp 150w,\n/static/011b3215b6b7e782f02d67aebfa4c319/bd37b/john-doe.webp 300w","type":"image/webp","sizes":"150px"}]},"width":150,"height":150}}},"thumbnail":{"__typename":"ImageSharp","ImageSharp_vertical":{"layout":"constrained","backgroundColor":"#787898","images":{"fallback":{"src":"/static/a381cbe123484c239b97a005d5ce4a00/144fe/image.jpg","srcSet":"/static/a381cbe123484c239b97a005d5ce4a00/9d7b9/image.jpg 190w,\n/static/a381cbe123484c239b97a005d5ce4a00/144fe/image.jpg 380w","sizes":"(min-width: 380px) 380px, 100vw"},"sources":[{"srcSet":"/static/a381cbe123484c239b97a005d5ce4a00/228d6/image.webp 190w,\n/static/a381cbe123484c239b97a005d5ce4a00/6b99c/image.webp 380w","type":"image/webp","sizes":"(min-width: 380px) 380px, 100vw"}]},"width":380,"height":290},"ImageSharp_hero":{"layout":"constrained","backgroundColor":"#787898","images":{"fallback":{"src":"/static/a381cbe123484c239b97a005d5ce4a00/5e493/image.jpg","srcSet":"/static/a381cbe123484c239b97a005d5ce4a00/696c0/image.jpg 800w,\n/static/a381cbe123484c239b97a005d5ce4a00/5e493/image.jpg 1600w","sizes":"(min-width: 1600px) 1600px, 100vw"},"sources":[{"srcSet":"/static/a381cbe123484c239b97a005d5ce4a00/c9f06/image.webp 800w,\n/static/a381cbe123484c239b97a005d5ce4a00/f47df/image.webp 1600w","type":"image/webp","sizes":"(min-width: 1600px) 1600px, 100vw"}]},"width":1600,"height":650}}},{"id":"3846dcd0-557b-5ff0-9e01-bbbcca916582","title":"New Technology Could Provide Rapid Detection Of COVID 19","slug":"/new-technology-could-provide-rapid-detection-of-covid-19/","link":null,"excerpt":"Primo in altis pelle alumnae Lorem markdownum obvius in seque opus, est bicorni forte; laeva…","timeToRead":1,"featured":null,"thumbnailText":null,"date":"April 02, 2020","category":{"id":"0b5ac4a8-ae62-515b-af2d-6c97757a2cee","name":"Technology","slug":"/category/technology/","color":"#bee3f8","icon":"/static/f41361d1715191a688f7243a90b28bc7/technology.svg"},"author":{"id":"20a83d85-4b9e-506d-9bff-345a4bbe1a5c","name":"John Doe","slug":"/author/john-doe/","title":"Anthropologist","description":"Sed commodo, est quis maximus fermentum, massa ipsum euismod neque, in varius risus tellus quis lacus. Sed ac bibendum odio.","skills":["Early Hominids","Biology","Anthropology"],"social":[{"name":"Github","url":"https://github.com/johndoe"},{"name":"Twitter","url":"https://twitter.com/twitter"},{"name":"Website","url":"https://example.com"}],"thumbnail":{"__typename":"ImageSharp","ImageSharp_small":{"layout":"fixed","placeholder":{"fallback":"data:image/svg+xml,%3csvg%20xmlns='http://www.w3.org/2000/svg'%20width='48'%20height='48'%20viewBox='0%200%2048%2048'%20preserveAspectRatio='none'%3e%3cpath%20d='M22%203c-2%201-3%204-4%207l-2%205c-2%202-2%202-2-1l-2-3c-1%200-1%202%202%208%200%202%202%203%204%204%202%200%203%202%203%203h1c1-1%201-2-2-4l-4-5h1l2%201v-2c-2-1-2-1%200-1l2-2c0-6%204-9%2011-9%204%200%204%200%205%204v16c-1%201-1%201%200%200%202-3%203-11%201-19l-1-5h-6c-5%200-7%200-9%203m4%2023l3%202%203%201-2%203-2%203-4-4-5-4v21h18l-1-5c0-6%201-5%203%201l1%204v-5l-1-9c0-3-1-4-2-5-2-1-2-1-2%201%202%203%202%205%201%207-1%201-1-1-1-9%200-1-1-2-3-1l-4-1h-2'%20fill='%23d3d3d3'%20fill-rule='evenodd'/%3e%3c/svg%3e"},"images":{"fallback":{"src":"/static/011b3215b6b7e782f02d67aebfa4c319/a7a66/john-doe.png","srcSet":"/static/011b3215b6b7e782f02d67aebfa4c319/a7a66/john-doe.png 48w,\n/static/011b3215b6b7e782f02d67aebfa4c319/416a0/john-doe.png 96w","sizes":"48px"},"sources":[{"srcSet":"/static/011b3215b6b7e782f02d67aebfa4c319/a3542/john-doe.webp 48w,\n/static/011b3215b6b7e782f02d67aebfa4c319/0f66d/john-doe.webp 96w","type":"image/webp","sizes":"48px"}]},"width":48,"height":48},"ImageSharp_regular":{"layout":"fixed","placeholder":{"fallback":"data:image/svg+xml,%3csvg%20xmlns='http://www.w3.org/2000/svg'%20width='48'%20height='48'%20viewBox='0%200%2048%2048'%20preserveAspectRatio='none'%3e%3cpath%20d='M22%203c-2%201-3%204-4%207l-2%205c-2%202-2%202-2-1l-2-3c-1%200-1%202%202%208%200%202%202%203%204%204%202%200%203%202%203%203h1c1-1%201-2-2-4l-4-5h1l2%201v-2c-2-1-2-1%200-1l2-2c0-6%204-9%2011-9%204%200%204%200%205%204v16c-1%201-1%201%200%200%202-3%203-11%201-19l-1-5h-6c-5%200-7%200-9%203m4%2023l3%202%203%201-2%203-2%203-4-4-5-4v21h18l-1-5c0-6%201-5%203%201l1%204v-5l-1-9c0-3-1-4-2-5-2-1-2-1-2%201%202%203%202%205%201%207-1%201-1-1-1-9%200-1-1-2-3-1l-4-1h-2'%20fill='%23d3d3d3'%20fill-rule='evenodd'/%3e%3c/svg%3e"},"images":{"fallback":{"src":"/static/011b3215b6b7e782f02d67aebfa4c319/46e60/john-doe.png","srcSet":"/static/011b3215b6b7e782f02d67aebfa4c319/46e60/john-doe.png 150w,\n/static/011b3215b6b7e782f02d67aebfa4c319/d612b/john-doe.png 300w","sizes":"150px"},"sources":[{"srcSet":"/static/011b3215b6b7e782f02d67aebfa4c319/ae23d/john-doe.webp 150w,\n/static/011b3215b6b7e782f02d67aebfa4c319/bd37b/john-doe.webp 300w","type":"image/webp","sizes":"150px"}]},"width":150,"height":150}}},"thumbnail":{"__typename":"ImageSharp","ImageSharp_vertical":{"layout":"constrained","backgroundColor":"#787898","images":{"fallback":{"src":"/static/a381cbe123484c239b97a005d5ce4a00/144fe/image.jpg","srcSet":"/static/a381cbe123484c239b97a005d5ce4a00/9d7b9/image.jpg 190w,\n/static/a381cbe123484c239b97a005d5ce4a00/144fe/image.jpg 380w","sizes":"(min-width: 380px) 380px, 100vw"},"sources":[{"srcSet":"/static/a381cbe123484c239b97a005d5ce4a00/228d6/image.webp 190w,\n/static/a381cbe123484c239b97a005d5ce4a00/6b99c/image.webp 380w","type":"image/webp","sizes":"(min-width: 380px) 380px, 100vw"}]},"width":380,"height":290},"ImageSharp_hero":{"layout":"constrained","backgroundColor":"#787898","images":{"fallback":{"src":"/static/a381cbe123484c239b97a005d5ce4a00/5e493/image.jpg","srcSet":"/static/a381cbe123484c239b97a005d5ce4a00/696c0/image.jpg 800w,\n/static/a381cbe123484c239b97a005d5ce4a00/5e493/image.jpg 1600w","sizes":"(min-width: 1600px) 1600px, 100vw"},"sources":[{"srcSet":"/static/a381cbe123484c239b97a005d5ce4a00/c9f06/image.webp 800w,\n/static/a381cbe123484c239b97a005d5ce4a00/f47df/image.webp 1600w","type":"image/webp","sizes":"(min-width: 1600px) 1600px, 100vw"}]},"width":1600,"height":650}}}],"pageInfo":{"pageCount":2,"hasPreviousPage":false,"hasNextPage":true,"currentPage":1},"totalCount":9}},"pageContext":{"slug":"/tag/innovation/","limit":6,"skip":0,"collectionType":"tags","paginatePostsPage":false,"basePath":"/","services":{"algolia":false,"mailchimp":false,"disqus":false,"graphComment":false,"facebookComment":false},"siteUrl":null,"mobileMenu":{"title":"Topics","items":[{"name":"Physics & Mathematics","slug":"/category/physics-and-mathematics/"},{"name":"Energy & Environment","slug":"/category/energy-and-environment/"},{"name":"Space","slug":"/category/space/"},{"name":"Technology","slug":"/category/technology/"}]},"darkMode":true,"includeExcerpt":true,"includeTimeToRead":true,"includeTableOfContents":true,"imageQuality":75}},
    "staticQueryHashes": ["1992822086","3117598128"]}